{
  "file_generated_by": "FlutterFire CLI",
  "purpose": "FirebaseAppID & ProjectID for this Firebase app in this directory",
  "GOOGLE_APP_ID": "1:766483828522:ios:0c9561de000d6ca4065853",
  "FIREBASE_PROJECT_ID": "whacamole-b7fc4",
  "GCM_SENDER_ID": "766483828522"
}